IPA Number , IPA , X-SAMPA                , Name
101        , p   , p                      , [[Voiceless bilabial stop]]
102        , b   , b                      , [[Voiced bilabial stop]]
103        , t   , t                      , [[Voiceless alveolar stop]]
104        , d   , d                      , [[Voiced alveolar stop]]
105        , ʈ   , t`                     , [[Voiceless retroflex stop]]
106        , ɖ   , d`                     , [[Voiced retroflex stop]]
107        , c   , c                      , [[Voiceless palatal stop]]
108        , ɟ   , J\                     , [[Voiced palatal stop]]
109        , k   , k                      , [[Voiceless velar stop]]
110        , ɡ   , g                      , [[Voiced velar stop]]
111        , q   , q                      , [[Voiceless uvular stop]]
112        , ɢ   , G                      , [[Voiced uvular stop]]
113        , ʔ   , ?                      , [[Glottal stop]]
114        , m   , m                      , [[Voiced bilabial nasal]]
115        , ɱ   , F                      , [[Voiced labiodental nasal]]
116        , n   , n                      , [[Voiced alveolar nasal]]
117        , ɳ   , n`                     , [[Voiced retroflex nasal]]
118        , ɲ   , J                      , [[Voiced palatal nasal]]
119        , ŋ   , N                      , [[Voiced velar nasal]]
120        , ɴ   , N\                     , [[Voiced uvular nasal]]
121        , ʙ   , B\                     , [[Voiced bilabial trill]]
122        , r   , r                      , [[Voiced alveolar trill]]
123        , ʀ   , R\                     , [[Voiced uvular trill]]
124        , ɾ   , 4                      , [[Voiced alveolar tap|Voiced alveolar tap]]
125        , ɽ   , r`                     , [[Voiced retroflex flap]]
126        , ɸ   , p\                     , [[Voiceless bilabial fricative]]
127        , β   , B                      , [[Voiced bilabial fricative]]
128        , f   , f                      , [[Voiceless labiodental fricative]]
129        , v   , v                      , [[Voiced labiodental fricative]]
130        , θ   , T                      , [[Voiceless dental fricative]]
131        , ð   , D                      , [[Voiced dental fricative]]
132        , s   , s                      , [[Voiceless alveolar fricative]]
133        , z   , z                      , [[Voiced alveolar fricative]]
134        , ʃ   , S                      , [[Voiceless palato-alveolar fricative]]
135        , ʒ   , Z                      , [[Voiced palato-alveolar fricative]]
136        , ʂ   , S`                     , [[Voiceless retroflex fricative]]
137        , ʐ   , Z`                     , [[Voiced retroflex fricative]]
138        , ç   , C                      , [[Voiceless palatal fricative]]
139        , ʝ   , J\                     , [[Voiced palatal fricative]]
140        , x   , x                      , [[Voiceless velar fricative]]
141        , ɣ   , G                      , [[Voiced velar fricative]]
142        , χ   , X                      , [[Voiceless uvular fricative]]
143        , ʁ   , R                      , [[Voiced uvular fricative]]
144        , ħ   , X\                     , [[Voiceless pharyngeal fricative]]
145        , ʕ   , ?\                     , [[Voiced pharyngeal fricative]]
146        , h   , h                      , [[Voiceless glottal fricative]]
147        , ɦ   , h\                     , [[Voiced glottal fricative]]
148        , ɬ   , K                      , [[Voiceless alveolar lateral fricative]]
149        , ɮ   , K\                     , [[Voiced alveolar lateral fricative]]
150        , ʋ   , P or V\                , [[Voiced labiodental approximant]]
151        , ɹ   , r\                     , [[Voiced alveolar approximant]]
152        , ɻ   , r`                     , [[Voiced retroflex approximant]]
153        , j   , j                      , [[Voiced palatal approximant]]
154        , ɰ   , M\                     , [[Voiced velar approximant]]
155        , l   , l                      , [[Voiced alveolar lateral approximant]]
156        , ɭ   , l`                     , [[Voiced retroflex lateral approximant]]
157        , ʎ   , L                      , [[Voiced palatal lateral approximant]]
158        , ʟ   , L\                     , [[Voiced velar lateral approximant]]
160        , ɓ   , b_<                    , [[Voiced bilabial implosive]]
162        , ɗ   , d_<                    , [[Voiced alveolar implosive]]
164        , ʄ   , J\_<                   , [[Voiced palatal implosive]]
166        , ɠ   , g_<                    , [[Voiced velar implosive]]
168        , ʛ   , G\_<                   , [[Voiced uvular implosive]]
169        , ʍ   , W                      , [[Voiceless labial–velar fricative]]
170        , w   , w                      , [[Voiced labial–velar approximant]]
171        , ɥ   , H                      , [[Voiced labial–palatal approximant]]
172        , ʜ   , H\                     , [[Voiceless epiglottal trill]]
173        , ʡ   , >\                     , [[Epiglottal stop]]
174        , ʢ   , <\                     , [[Voiced epiglottal trill]]
175        , ɧ   , x\                     , [[Sj-sound|''Sj''-sound]]
176        , ʘ   , O\                     , [[Bilabial click]]
177        , ǀ   , |\                     , [[Dental click]]
178        , ǃ   , !\                     , [[Alveolar click]]
179        , ǂ   , =\                     , [[Palatal click]]
180        , ǁ   , |\|\                   , [[Alveolar lateral click]]
181        , ɺ   , l\                     , [[Voiced alveolar lateral flap]]
182        , ɕ   , s\                     , [[Voiceless alveolo-palatal fricative]]
183        , ʑ   , z\                     , [[Voiced alveolo-palatal fricative]]
184        , ⱱ   ,                        , [[Voiced labiodental flap]]
209        , ɫ   , 5                      , [[Velarized alveolar lateral approximant]]
301        , i   , i                      , [[Close front unrounded vowel]]
302        , e   , e                      , [[Close-mid front unrounded vowel]]
303        , ɛ   , E                      , [[Open-mid front unrounded vowel]]
304        , a   , a                      , [[Open front unrounded vowel]]
305        , ɑ   , A                      , [[Open back unrounded vowel]]
306        , ɔ   , O                      , [[Open-mid back rounded vowel]]
307        , o   , o                      , [[Close-mid back rounded vowel]]
308        , u   , u                      , [[Close back rounded vowel]]
309        , y   , y                      , [[Close front rounded vowel]]
310        , ø   , 2                      , [[Close-mid front rounded vowel]]
311        , œ   , 9                      , [[Open-mid front rounded vowel]]
312        , ɶ   , &                      , [[Open front rounded vowel]]
313        , ɒ   , Q                      , [[Open back rounded vowel]]
314        , ʌ   , V                      , [[Open-mid back unrounded vowel]]
315        , ɤ   , 7                      , [[Close-mid back unrounded vowel]]
316        , ɯ   , M                      , [[Close back unrounded vowel]]
317        , ɨ   , 1                      , [[Close central unrounded vowel]]
318        , ʉ   , }                      , [[Close central rounded vowel]]
319        , ɪ   , I                      , [[Near-close front unrounded vowel]]
320        , ʏ   , Y                      , [[Near-close front rounded vowel]]
321        , ʊ   , U                      , [[Near-close back rounded vowel]]
322        , ə   , @                      , [[Mid central vowel]]
323        , ɵ   , 8                      , [[Close-mid central rounded vowel]]
324        , ɐ   , 6                      , [[Near-open central vowel]]
325        , æ   , {                      , [[Near-open front unrounded vowel]]
326        , ɜ   , 3                      , [[Open-mid central unrounded vowel]]
327        , ɚ   , @`                     , [[R-colored vowel|R-coloured mid central vowel]]
395        , ɞ   , 3\                     , [[Open-mid central rounded vowel]]
397        , ɘ   , @\                     , [[Close-mid central unrounded vowel]]
401        , ◌ʼ  , _>                     , [[Ejective]]
402A       , ◌̥   , _0                     , [[Voiceless]]
402B       , ◌̊   , _0                     , [[Voiceless]]
403        , ◌̬   , _v                     , [[Voice (phonetics)|Voiced]]
404        , ʰ   , _h                     , [[Aspirated consonant|Aspirated]]
405        , ◌̤   , _t                     , [[Breathy voice]]d
406        , ◌̰   , _k                     , [[Creaky voice]]d
407        , ◌̼   , _N                     , [[Linguolabial]]
408        , ◌̪   , _d                     , [[Dental consonant|Dental]]
409        , ◌̺   , _a                     , [[Apical consonant|Apical]]
410        , ◌̻   , _m                     , [[Laminal consonant|Laminal]]
411        , ◌̹   , _O                     , [[Roundedness|More rounded]]
412        , ◌̜   , _c                     , [[Roundedness|Less rounded]]
413        , ◌̟   , _+                     , [[Relative articulation|Advanced]]
414        , ◌̠   , _-                     , [[Relative articulation|Retracted]]
415        , ◌̈   , _"                     , [[Relative articulation|Centralized]]
416        , ◌̽   , _x                     , [[Relative articulation|Mid-centralized]]
417        , ◌̘   , _A                     , [[Advanced tongue root]]
418        , ◌̙   , _q                     , [[Retracted tongue root]]
419        , ◌˞  , `                      , [[R-colored vowel|Rhoticity]]
420        , ʷ   , _w                     , [[Labialization|Labialized]]
421        , ʲ   , ' or _j                , [[Palatalization (phonetics)|Palatalized]]
422        , ˠ   , _G                     , [[Velarization|Velarized]]
423        , ˤ   , _?\                    , [[Pharyngealization|Pharyngealized]]
424        , ◌̃   , ~ or _~                , [[Nasalization|Nasalized]]
425        , ⁿ   , _n                     , [[Nasal release]]
426        , ˡ   , _l                     , [[Lateral release (phonetics)|Lateral release]]
427        , ◌̚   , _}                     , [[No audible release]]
428        , ◌̴   , _e                     , [[Velarization|Velarized]] or [[Pharyngealization|pharyngealized]]
429        , ◌̝   , _r                     , [[Relative articulation|Raised]]
430        , ◌̞   , _o                     , [[Relative articulation|Lowered]]
431        , ◌̩   , = or _=                , [[Syllabic consonant|Syllabic]]
432        , ◌̯   , _^                     , [[Semivowel|Non-syllabic]]
433A       , ◌͡◌  , _                      , [[Affricate]] or [[double articulation]]
433B       , ◌͜◌  , _                      , [[Affricate]] or [[double articulation]]
501        , ˈ   , "                      , [[Primary stress]]
502        , ˌ   , %                      , [[Secondary stress]]
503        , ː   , :                      , [[Length (phonetics)|Long]]
504        , ˑ   , :\                     , [[Length (phonetics)|Half-long]]
505        , ◌̆   , _X                     , [[Extra-short]]
506        , .   , .                      , [[Syllable]] break
507        , |   , |                      , Minor ([[foot (prosody)|foot]]) group
508        , ‖   , ||                     , Major ([[intonation (linguistics)|intonation]]) group
509        , ‿   , -\                     , [[Connected speech|Linking (absence of a break)]]
510        , ↗   , </> or <R>             , [[Intonation (linguistics)|Global rise]]
511        , ↘   , <\> or <F>             , [[Intonation (linguistics)|Global fall]]
512        , ◌̋   , _T                     , [[Tone (linguistics)|Extra-high]]
513        , ◌́   , _H                     , [[Tone (linguistics)|High]]
514        , ◌̄   , _M                     , [[Tone (linguistics)|Mid]]
515        , ◌̀   , _L                     , [[Tone (linguistics)|Low]]
516        , ◌̏   , _B                     , [[Tone (linguistics)|Extra-low]]
517        , ꜛ   , ^                      , [[Upstep]]
518        , ꜜ   , !                      , [[Downstep]]
519        , ˥   , <T>                    , [[Tone (linguistics)|Extra-high]]
520        , ˦   , <H>                    , [[Tone (linguistics)|High]]
521        , ˧   , <M>                    , [[Tone (linguistics)|Mid]]
522        , ˨   , <L>                    , [[Tone (linguistics)|Low]]
523        , ˩   , <B>                    , [[Tone (linguistics)|Extra-low]]
524        , ◌̌   , _L_H or _R or _/       , [[Tone (linguistics)|Rising]]
525        , ◌̂   , _H_L or _F or _\       , [[Tone (linguistics)|Falling]]
526        , ◌᷄   , _H_T                   , [[Tone (linguistics)|High-rising]]
527        , ◌᷅   , _B_L                   , [[Tone (linguistics)|Low-rising]]
528        , ◌᷈   , _M_H_L or _R_F or _/_\ , [[Tone (linguistics)|Rising–falling]]
